{
    "args": "",
    "backgroundPath": "images/heretic_bg.png",
    "backgroundTileHide": false,
    "categories": [
        "Heretic",
        "Schism"
    ],
    "cvars": [
        {
            "name": "schism_spawners_hexen",
            "value": "5"
        },
        {
            "name": "schism_spawners_blood",
            "value": "0"
        },
        {
            "name": "schism_spawners_heretic",
            "value": "10"
        },
        {
            "name": "schism_spawners_doom",
            "value": "0"
        }
    ],
    "engine": "GZDoom",
    "iconPath": "images/heretic.png",
    "inheritProfiles": [
        "Heretic: Shadow of The Serpent Riders",
        "Schism Doom"
    ],
    "iwad": "Heretic",
    "name": "Schism Heretic",
    "playerClasses": [
    ],
    "resources": [
    ]
}

